{
    "modules": [],
    "properties": {
        "backendModules": [],
        "description": "",
        "emConf": {
            "category": "plugin",
            "custom_category": "",
            "dependsOn": "typo3 => 8.7.0-0.0.0\nhive_cfg_repository => 8.7.0-8.7.999\nhive_ext_article => 8.7.0-8.7.999\nhive_ext_metadata => 8.7.0-8.7.999\nhive_ext_taxonomy => 8.7.0-8.7.999\n",
            "disableLocalization": false,
            "disableVersioning": false,
            "skipGenerateDocumentationTemplate": false,
            "sourceLanguage": "en",
            "state": "alpha",
            "targetVersion": "8.7.0-8.7.99",
            "version": "8.7.0"
        },
        "extensionKey": "hive_ext_career",
        "name": "hive_ext_career",
        "originalExtensionKey": "",
        "originalVendorName": "",
        "persons": [
            {
                "company": "teufels GmbH",
                "email": "a.hafner@teufels.com",
                "name": "Andreas Hafner",
                "role": "Developer"
            },
            {
                "company": "teufels GmbH",
                "email": "d.hilser@teufels.com",
                "name": "Dominik Hilser",
                "role": "Developer"
            },
            {
                "company": "teufels GmbH",
                "email": "g.kathan@teufels.com",
                "name": "Georg Kathan",
                "role": "Developer"
            },
            {
                "company": "teufels GmbH",
                "email": "h.krueger@teufels.com",
                "name": "Hendrik Kr\u00fcger",
                "role": "Developer"
            },
            {
                "company": "teufels GmbH",
                "email": "j.rodriguez@teufels.com",
                "name": "Josymar Escalona Rodriguez",
                "role": "Developer"
            },
            {
                "company": "teufels GmbH",
                "email": "p.ennen@teufels.com",
                "name": "Perrin Ennen",
                "role": "Developer"
            },
            {
                "company": "teufels GmbH",
                "email": "t.bittner@teufels.com",
                "name": "Timo Bittner",
                "role": "Developer"
            },
            {
                "company": "teufels GmbH",
                "email": "y.aister@teufels.com",
                "name": "Yannik Aister",
                "role": "Developer"
            }
        ],
        "plugins": [],
        "vendorName": "HIVE"
    },
    "wires": [],
    "log": {
        "last_modified": "2018-02-21 03:50",
        "extension_builder_version": "8.7.0",
        "be_user": " (2)"
    }
}